[
  {
    "name": "minecraft:stone",
    "meta": 0,
    "length": 1,
    "name0": "minecraft:cobblestone",
    "meta0": 0,
    "0chance0": 100.0,
    "1chance0": 100.0,
    "2chance0": 100.0,
    "3chance0": 100.0,
    "0pair0": "{\n  \"left\": 1,\n  \"right\": 1\n}",
    "1pair0": "{\n  \"left\": 1,\n  \"right\": 1\n}",
    "2pair0": "{\n  \"left\": 1,\n  \"right\": 1\n}",
    "3pair0": "{\n  \"left\": 1,\n  \"right\": 1\n}"
  },
  {
    "name": "minecraft:grass",
    "meta": 0,
    "length": 1,
    "name0": "minecraft:dirt",
    "meta0": 0,
    "0chance0": 100.0,
    "1chance0": 100.0,
    "2chance0": 100.0,
    "3chance0": 100.0,
    "0pair0": "{\n  \"left\": 1,\n  \"right\": 1\n}",
    "1pair0": "{\n  \"left\": 1,\n  \"right\": 1\n}",
    "2pair0": "{\n  \"left\": 1,\n  \"right\": 1\n}",
    "3pair0": "{\n  \"left\": 1,\n  \"right\": 1\n}"
  },
  {
    "name": "minecraft:dirt",
    "meta": 2,
    "length": 1,
    "name0": "minecraft:dirt",
    "meta0": 0,
    "0chance0": 100.0,
    "1chance0": 100.0,
    "2chance0": 100.0,
    "3chance0": 100.0,
    "0pair0": "{\n  \"left\": 1,\n  \"right\": 1\n}",
    "1pair0": "{\n  \"left\": 1,\n  \"right\": 1\n}",
    "2pair0": "{\n  \"left\": 1,\n  \"right\": 1\n}",
    "3pair0": "{\n  \"left\": 1,\n  \"right\": 1\n}"
  },
  {
    "name": "minecraft:gravel",
    "meta": 0,
    "length": 1,
    "name0": "minecraft:flint",
    "meta0": 0,
    "0chance0": 10.2,
    "1chance0": 14.26,
    "2chance0": 24.86,
    "3chance0": 100.0,
    "0pair0": "{\n  \"left\": 0,\n  \"right\": 1\n}",
    "1pair0": "{\n  \"left\": 0,\n  \"right\": 1\n}",
    "2pair0": "{\n  \"left\": 0,\n  \"right\": 1\n}",
    "3pair0": "{\n  \"left\": 1,\n  \"right\": 1\n}"
  },
  {
    "name": "minecraft:coal_ore",
    "meta": 0,
    "length": 1,
    "name0": "minecraft:coal",
    "meta0": 0,
    "0chance0": 100.0,
    "1chance0": 133.06,
    "2chance0": 176.14,
    "3chance0": 217.34,
    "0pair0": "{\n  \"left\": 1,\n  \"right\": 1\n}",
    "1pair0": "{\n  \"left\": 1,\n  \"right\": 2\n}",
    "2pair0": "{\n  \"left\": 1,\n  \"right\": 3\n}",
    "3pair0": "{\n  \"left\": 1,\n  \"right\": 4\n}"
  },
  {
    "name": "minecraft:leaves",
    "meta": 0,
    "length": 1,
    "name0": "minecraft:sapling",
    "meta0": 0,
    "0chance0": 5.02,
    "1chance0": 6.52,
    "2chance0": 8.02,
    "3chance0": 10.28,
    "0pair0": "{\n  \"left\": 0,\n  \"right\": 1\n}",
    "1pair0": "{\n  \"left\": 0,\n  \"right\": 1\n}",
    "2pair0": "{\n  \"left\": 0,\n  \"right\": 1\n}",
    "3pair0": "{\n  \"left\": 0,\n  \"right\": 1\n}"
  },
  {
    "name": "minecraft:leaves",
    "meta": 1,
    "length": 1,
    "name0": "minecraft:sapling",
    "meta0": 1,
    "0chance0": 5.3399997,
    "1chance0": 6.48,
    "2chance0": 8.66,
    "3chance0": 10.96,
    "0pair0": "{\n  \"left\": 0,\n  \"right\": 1\n}",
    "1pair0": "{\n  \"left\": 0,\n  \"right\": 1\n}",
    "2pair0": "{\n  \"left\": 0,\n  \"right\": 1\n}",
    "3pair0": "{\n  \"left\": 0,\n  \"right\": 1\n}"
  },
  {
    "name": "minecraft:leaves",
    "meta": 2,
    "length": 1,
    "name0": "minecraft:sapling",
    "meta0": 2,
    "0chance0": 4.78,
    "1chance0": 6.08,
    "2chance0": 7.88,
    "3chance0": 10.2,
    "0pair0": "{\n  \"left\": 0,\n  \"right\": 1\n}",
    "1pair0": "{\n  \"left\": 0,\n  \"right\": 1\n}",
    "2pair0": "{\n  \"left\": 0,\n  \"right\": 1\n}",
    "3pair0": "{\n  \"left\": 0,\n  \"right\": 1\n}"
  },
  {
    "name": "minecraft:leaves",
    "meta": 3,
    "length": 1,
    "name0": "minecraft:sapling",
    "meta0": 3,
    "0chance0": 2.3600001,
    "1chance0": 2.96,
    "2chance0": 2.98,
    "3chance0": 4.16,
    "0pair0": "{\n  \"left\": 0,\n  \"right\": 1\n}",
    "1pair0": "{\n  \"left\": 0,\n  \"right\": 1\n}",
    "2pair0": "{\n  \"left\": 0,\n  \"right\": 1\n}",
    "3pair0": "{\n  \"left\": 0,\n  \"right\": 1\n}"
  },
  {
    "name": "minecraft:lapis_ore",
    "meta": 0,
    "length": 1,
    "name0": "minecraft:dye",
    "meta0": 4,
    "0chance0": 602.48,
    "1chance0": 806.8,
    "2chance0": 1057.84,
    "3chance0": 1329.78,
    "0pair0": "{\n  \"left\": 4,\n  \"right\": 8\n}",
    "1pair0": "{\n  \"left\": 4,\n  \"right\": 16\n}",
    "2pair0": "{\n  \"left\": 4,\n  \"right\": 24\n}",
    "3pair0": "{\n  \"left\": 4,\n  \"right\": 32\n}"
  },
  {
    "name": "minecraft:web",
    "meta": 0,
    "length": 1,
    "name0": "minecraft:string",
    "meta0": 0,
    "0chance0": 100.0,
    "1chance0": 100.0,
    "2chance0": 100.0,
    "3chance0": 100.0,
    "0pair0": "{\n  \"left\": 1,\n  \"right\": 1\n}",
    "1pair0": "{\n  \"left\": 1,\n  \"right\": 1\n}",
    "2pair0": "{\n  \"left\": 1,\n  \"right\": 1\n}",
    "3pair0": "{\n  \"left\": 1,\n  \"right\": 1\n}"
  },
  {
    "name": "minecraft:tallgrass",
    "meta": 1,
    "length": 2,
    "name0": "minecraft:wheat_seeds",
    "meta0": 0,
    "0chance0": 8.299999,
    "1chance0": 15.360001,
    "2chance0": 25.74,
    "3chance0": 35.92,
    "0pair0": "{\n  \"left\": 0,\n  \"right\": 1\n}",
    "1pair0": "{\n  \"left\": 0,\n  \"right\": 3\n}",
    "2pair0": "{\n  \"left\": 0,\n  \"right\": 5\n}",
    "3pair0": "{\n  \"left\": 0,\n  \"right\": 7\n}",
    "name1": "extratrees:hops",
    "meta1": 0,
    "0chance1": 4.7400002,
    "1chance1": 4.22,
    "2chance1": 4.7400002,
    "3chance1": 4.4,
    "0pair1": "{\n  \"left\": 0,\n  \"right\": 1\n}",
    "1pair1": "{\n  \"left\": 0,\n  \"right\": 1\n}",
    "2pair1": "{\n  \"left\": 0,\n  \"right\": 1\n}",
    "3pair1": "{\n  \"left\": 0,\n  \"right\": 1\n}"
  },
  {
    "name": "minecraft:tallgrass",
    "meta": 2,
    "length": 2,
    "name0": "minecraft:wheat_seeds",
    "meta0": 0,
    "0chance0": 8.34,
    "1chance0": 17.52,
    "2chance0": 25.32,
    "3chance0": 34.58,
    "0pair0": "{\n  \"left\": 0,\n  \"right\": 1\n}",
    "1pair0": "{\n  \"left\": 0,\n  \"right\": 3\n}",
    "2pair0": "{\n  \"left\": 0,\n  \"right\": 5\n}",
    "3pair0": "{\n  \"left\": 0,\n  \"right\": 7\n}",
    "name1": "extratrees:hops",
    "meta1": 0,
    "0chance1": 4.32,
    "1chance1": 3.9,
    "2chance1": 4.02,
    "3chance1": 4.0600004,
    "0pair1": "{\n  \"left\": 0,\n  \"right\": 1\n}",
    "1pair1": "{\n  \"left\": 0,\n  \"right\": 1\n}",
    "2pair1": "{\n  \"left\": 0,\n  \"right\": 1\n}",
    "3pair1": "{\n  \"left\": 0,\n  \"right\": 1\n}"
  },
  {
    "name": "minecraft:deadbush",
    "meta": 0,
    "length": 1,
    "name0": "minecraft:stick",
    "meta0": 0,
    "0chance0": 98.82,
    "1chance0": 101.04001,
    "2chance0": 99.78,
    "3chance0": 98.159996,
    "0pair0": "{\n  \"left\": 0,\n  \"right\": 2\n}",
    "1pair0": "{\n  \"left\": 1,\n  \"right\": 2\n}",
    "2pair0": "{\n  \"left\": 0,\n  \"right\": 2\n}",
    "3pair0": "{\n  \"left\": 0,\n  \"right\": 2\n}"
  },
  {
    "name": "minecraft:bookshelf",
    "meta": 0,
    "length": 1,
    "name0": "minecraft:book",
    "meta0": 0,
    "0chance0": 300.0,
    "1chance0": 300.0,
    "2chance0": 300.0,
    "3chance0": 300.0,
    "0pair0": "{\n  \"left\": 3,\n  \"right\": 3\n}",
    "1pair0": "{\n  \"left\": 3,\n  \"right\": 3\n}",
    "2pair0": "{\n  \"left\": 3,\n  \"right\": 3\n}",
    "3pair0": "{\n  \"left\": 3,\n  \"right\": 3\n}"
  },
  {
    "name": "minecraft:diamond_ore",
    "meta": 0,
    "length": 1,
    "name0": "minecraft:diamond",
    "meta0": 0,
    "0chance0": 100.0,
    "1chance0": 132.72,
    "2chance0": 174.64,
    "3chance0": 217.96,
    "0pair0": "{\n  \"left\": 1,\n  \"right\": 1\n}",
    "1pair0": "{\n  \"left\": 1,\n  \"right\": 2\n}",
    "2pair0": "{\n  \"left\": 1,\n  \"right\": 3\n}",
    "3pair0": "{\n  \"left\": 1,\n  \"right\": 4\n}"
  },
  {
    "name": "minecraft:farmland",
    "meta": 0,
    "length": 1,
    "name0": "minecraft:dirt",
    "meta0": 0,
    "0chance0": 100.0,
    "1chance0": 100.0,
    "2chance0": 100.0,
    "3chance0": 100.0,
    "0pair0": "{\n  \"left\": 1,\n  \"right\": 1\n}",
    "1pair0": "{\n  \"left\": 1,\n  \"right\": 1\n}",
    "2pair0": "{\n  \"left\": 1,\n  \"right\": 1\n}",
    "3pair0": "{\n  \"left\": 1,\n  \"right\": 1\n}"
  },
  {
    "name": "minecraft:redstone_ore",
    "meta": 0,
    "length": 2,
    "name0": "minecraft:redstone",
    "meta0": 0,
    "0chance0": 449.54,
    "1chance0": 500.02,
    "2chance0": 547.7,
    "3chance0": 601.4,
    "0pair0": "{\n  \"left\": 4,\n  \"right\": 5\n}",
    "1pair0": "{\n  \"left\": 4,\n  \"right\": 6\n}",
    "2pair0": "{\n  \"left\": 4,\n  \"right\": 7\n}",
    "3pair0": "{\n  \"left\": 4,\n  \"right\": 8\n}",
    "name1": "extrautils2:ingredients",
    "meta1": 0,
    "0chance1": 3.08,
    "1chance1": 2.54,
    "2chance1": 2.38,
    "3chance1": 2.6000001,
    "0pair1": "{\n  \"left\": 0,\n  \"right\": 2\n}",
    "1pair1": "{\n  \"left\": 0,\n  \"right\": 2\n}",
    "2pair1": "{\n  \"left\": 0,\n  \"right\": 2\n}",
    "3pair1": "{\n  \"left\": 0,\n  \"right\": 2\n}"
  },
  {
    "name": "minecraft:snow_layer",
    "meta": 0,
    "length": 1,
    "name0": "minecraft:snowball",
    "meta0": 0,
    "0chance0": 200.0,
    "1chance0": 200.0,
    "2chance0": 200.0,
    "3chance0": 200.0,
    "0pair0": "{\n  \"left\": 2,\n  \"right\": 2\n}",
    "1pair0": "{\n  \"left\": 2,\n  \"right\": 2\n}",
    "2pair0": "{\n  \"left\": 2,\n  \"right\": 2\n}",
    "3pair0": "{\n  \"left\": 2,\n  \"right\": 2\n}"
  },
  {
    "name": "minecraft:snow",
    "meta": 0,
    "length": 1,
    "name0": "minecraft:snowball",
    "meta0": 0,
    "0chance0": 400.0,
    "1chance0": 400.0,
    "2chance0": 400.0,
    "3chance0": 400.0,
    "0pair0": "{\n  \"left\": 4,\n  \"right\": 4\n}",
    "1pair0": "{\n  \"left\": 4,\n  \"right\": 4\n}",
    "2pair0": "{\n  \"left\": 4,\n  \"right\": 4\n}",
    "3pair0": "{\n  \"left\": 4,\n  \"right\": 4\n}"
  },
  {
    "name": "minecraft:clay",
    "meta": 0,
    "length": 1,
    "name0": "minecraft:clay_ball",
    "meta0": 0,
    "0chance0": 400.0,
    "1chance0": 400.0,
    "2chance0": 400.0,
    "3chance0": 400.0,
    "0pair0": "{\n  \"left\": 4,\n  \"right\": 4\n}",
    "1pair0": "{\n  \"left\": 4,\n  \"right\": 4\n}",
    "2pair0": "{\n  \"left\": 4,\n  \"right\": 4\n}",
    "3pair0": "{\n  \"left\": 4,\n  \"right\": 4\n}"
  },
  {
    "name": "minecraft:glowstone",
    "meta": 0,
    "length": 1,
    "name0": "minecraft:glowstone_dust",
    "meta0": 0,
    "0chance0": 299.16,
    "1chance0": 331.28,
    "2chance0": 354.84,
    "3chance0": 367.02002,
    "0pair0": "{\n  \"left\": 2,\n  \"right\": 4\n}",
    "1pair0": "{\n  \"left\": 2,\n  \"right\": 4\n}",
    "2pair0": "{\n  \"left\": 2,\n  \"right\": 4\n}",
    "3pair0": "{\n  \"left\": 2,\n  \"right\": 4\n}"
  },
  {
    "name": "minecraft:melon_block",
    "meta": 0,
    "length": 1,
    "name0": "minecraft:melon",
    "meta0": 0,
    "0chance0": 499.56003,
    "1chance0": 551.10004,
    "2chance0": 602.74,
    "3chance0": 647.45996,
    "0pair0": "{\n  \"left\": 3,\n  \"right\": 7\n}",
    "1pair0": "{\n  \"left\": 3,\n  \"right\": 8\n}",
    "2pair0": "{\n  \"left\": 3,\n  \"right\": 9\n}",
    "3pair0": "{\n  \"left\": 3,\n  \"right\": 9\n}"
  },
  {
    "name": "minecraft:mycelium",
    "meta": 0,
    "length": 1,
    "name0": "minecraft:dirt",
    "meta0": 0,
    "0chance0": 100.0,
    "1chance0": 100.0,
    "2chance0": 100.0,
    "3chance0": 100.0,
    "0pair0": "{\n  \"left\": 1,\n  \"right\": 1\n}",
    "1pair0": "{\n  \"left\": 1,\n  \"right\": 1\n}",
    "2pair0": "{\n  \"left\": 1,\n  \"right\": 1\n}",
    "3pair0": "{\n  \"left\": 1,\n  \"right\": 1\n}"
  },
  {
    "name": "minecraft:emerald_ore",
    "meta": 0,
    "length": 1,
    "name0": "minecraft:emerald",
    "meta0": 0,
    "0chance0": 100.0,
    "1chance0": 133.26,
    "2chance0": 175.04,
    "3chance0": 219.42,
    "0pair0": "{\n  \"left\": 1,\n  \"right\": 1\n}",
    "1pair0": "{\n  \"left\": 1,\n  \"right\": 2\n}",
    "2pair0": "{\n  \"left\": 1,\n  \"right\": 3\n}",
    "3pair0": "{\n  \"left\": 1,\n  \"right\": 4\n}"
  },
  {
    "name": "minecraft:ender_chest",
    "meta": 0,
    "length": 1,
    "name0": "minecraft:obsidian",
    "meta0": 0,
    "0chance0": 800.0,
    "1chance0": 800.0,
    "2chance0": 800.0,
    "3chance0": 800.0,
    "0pair0": "{\n  \"left\": 8,\n  \"right\": 8\n}",
    "1pair0": "{\n  \"left\": 8,\n  \"right\": 8\n}",
    "2pair0": "{\n  \"left\": 8,\n  \"right\": 8\n}",
    "3pair0": "{\n  \"left\": 8,\n  \"right\": 8\n}"
  },
  {
    "name": "minecraft:quartz_ore",
    "meta": 0,
    "length": 1,
    "name0": "minecraft:quartz",
    "meta0": 0,
    "0chance0": 100.0,
    "1chance0": 134.15999,
    "2chance0": 175.18,
    "3chance0": 217.64,
    "0pair0": "{\n  \"left\": 1,\n  \"right\": 1\n}",
    "1pair0": "{\n  \"left\": 1,\n  \"right\": 2\n}",
    "2pair0": "{\n  \"left\": 1,\n  \"right\": 3\n}",
    "3pair0": "{\n  \"left\": 1,\n  \"right\": 4\n}"
  },
  {
    "name": "minecraft:leaves2",
    "meta": 0,
    "length": 1,
    "name0": "minecraft:sapling",
    "meta0": 4,
    "0chance0": 5.2400002,
    "1chance0": 6.12,
    "2chance0": 8.18,
    "3chance0": 10.14,
    "0pair0": "{\n  \"left\": 0,\n  \"right\": 1\n}",
    "1pair0": "{\n  \"left\": 0,\n  \"right\": 1\n}",
    "2pair0": "{\n  \"left\": 0,\n  \"right\": 1\n}",
    "3pair0": "{\n  \"left\": 0,\n  \"right\": 1\n}"
  },
  {
    "name": "minecraft:leaves2",
    "meta": 1,
    "length": 1,
    "name0": "minecraft:sapling",
    "meta0": 5,
    "0chance0": 4.92,
    "1chance0": 6.5,
    "2chance0": 8.5,
    "3chance0": 10.22,
    "0pair0": "{\n  \"left\": 0,\n  \"right\": 1\n}",
    "1pair0": "{\n  \"left\": 0,\n  \"right\": 1\n}",
    "2pair0": "{\n  \"left\": 0,\n  \"right\": 1\n}",
    "3pair0": "{\n  \"left\": 0,\n  \"right\": 1\n}"
  },
  {
    "name": "minecraft:sea_lantern",
    "meta": 0,
    "length": 1,
    "name0": "minecraft:prismarine_crystals",
    "meta0": 0,
    "0chance0": 251.58,
    "1chance0": 301.02,
    "2chance0": 349.14,
    "3chance0": 389.88,
    "0pair0": "{\n  \"left\": 2,\n  \"right\": 3\n}",
    "1pair0": "{\n  \"left\": 2,\n  \"right\": 4\n}",
    "2pair0": "{\n  \"left\": 2,\n  \"right\": 5\n}",
    "3pair0": "{\n  \"left\": 2,\n  \"right\": 5\n}"
  },
  {
    "name": "minecraft:double_plant",
    "meta": 2,
    "length": 1,
    "name0": "minecraft:wheat_seeds",
    "meta0": 0,
    "0chance0": 12.540001,
    "1chance0": 11.7,
    "2chance0": 12.42,
    "3chance0": 11.84,
    "0pair0": "{\n  \"left\": 0,\n  \"right\": 1\n}",
    "1pair0": "{\n  \"left\": 0,\n  \"right\": 1\n}",
    "2pair0": "{\n  \"left\": 0,\n  \"right\": 1\n}",
    "3pair0": "{\n  \"left\": 0,\n  \"right\": 1\n}"
  },
  {
    "name": "minecraft:chorus_plant",
    "meta": 0,
    "length": 1,
    "name0": "minecraft:chorus_fruit",
    "meta0": 0,
    "0chance0": 49.26,
    "1chance0": 50.480003,
    "2chance0": 48.98,
    "3chance0": 51.22,
    "0pair0": "{\n  \"left\": 0,\n  \"right\": 1\n}",
    "1pair0": "{\n  \"left\": 0,\n  \"right\": 1\n}",
    "2pair0": "{\n  \"left\": 0,\n  \"right\": 1\n}",
    "3pair0": "{\n  \"left\": 0,\n  \"right\": 1\n}"
  },
  {
    "name": "minecraft:grass_path",
    "meta": 0,
    "length": 1,
    "name0": "minecraft:dirt",
    "meta0": 0,
    "0chance0": 100.0,
    "1chance0": 100.0,
    "2chance0": 100.0,
    "3chance0": 100.0,
    "0pair0": "{\n  \"left\": 1,\n  \"right\": 1\n}",
    "1pair0": "{\n  \"left\": 1,\n  \"right\": 1\n}",
    "2pair0": "{\n  \"left\": 1,\n  \"right\": 1\n}",
    "3pair0": "{\n  \"left\": 1,\n  \"right\": 1\n}"
  },
  {
    "name": "twilightforest:root",
    "meta": 0,
    "length": 1,
    "name0": "minecraft:stick",
    "meta0": 0,
    "0chance0": 350.84,
    "1chance0": 350.2,
    "2chance0": 350.2,
    "3chance0": 350.74,
    "0pair0": "{\n  \"left\": 3,\n  \"right\": 4\n}",
    "1pair0": "{\n  \"left\": 3,\n  \"right\": 4\n}",
    "2pair0": "{\n  \"left\": 3,\n  \"right\": 4\n}",
    "3pair0": "{\n  \"left\": 3,\n  \"right\": 4\n}"
  },
  {
    "name": "twilightforest:twilight_plant",
    "meta": 7,
    "length": 1,
    "name0": "twilightforest:torchberries",
    "meta0": 0,
    "0chance0": 100.0,
    "1chance0": 100.0,
    "2chance0": 100.0,
    "3chance0": 100.0,
    "0pair0": "{\n  \"left\": 1,\n  \"right\": 1\n}",
    "1pair0": "{\n  \"left\": 1,\n  \"right\": 1\n}",
    "2pair0": "{\n  \"left\": 1,\n  \"right\": 1\n}",
    "3pair0": "{\n  \"left\": 1,\n  \"right\": 1\n}"
  },
  {
    "name": "twilightforest:magic_leaves",
    "meta": 0,
    "length": 1,
    "name0": "minecraft:sapling",
    "meta0": 0,
    "0chance0": 4.86,
    "1chance0": 6.06,
    "2chance0": 8.7,
    "3chance0": 10.52,
    "0pair0": "{\n  \"left\": 0,\n  \"right\": 1\n}",
    "1pair0": "{\n  \"left\": 0,\n  \"right\": 1\n}",
    "2pair0": "{\n  \"left\": 0,\n  \"right\": 1\n}",
    "3pair0": "{\n  \"left\": 0,\n  \"right\": 1\n}"
  },
  {
    "name": "twilightforest:magic_leaves",
    "meta": 1,
    "length": 1,
    "name0": "minecraft:sapling",
    "meta0": 0,
    "0chance0": 5.2799997,
    "1chance0": 5.82,
    "2chance0": 8.58,
    "3chance0": 9.78,
    "0pair0": "{\n  \"left\": 0,\n  \"right\": 1\n}",
    "1pair0": "{\n  \"left\": 0,\n  \"right\": 1\n}",
    "2pair0": "{\n  \"left\": 0,\n  \"right\": 1\n}",
    "3pair0": "{\n  \"left\": 0,\n  \"right\": 1\n}"
  },
  {
    "name": "twilightforest:magic_leaves",
    "meta": 2,
    "length": 1,
    "name0": "minecraft:sapling",
    "meta0": 0,
    "0chance0": 4.86,
    "1chance0": 6.0,
    "2chance0": 8.18,
    "3chance0": 8.84,
    "0pair0": "{\n  \"left\": 0,\n  \"right\": 1\n}",
    "1pair0": "{\n  \"left\": 0,\n  \"right\": 1\n}",
    "2pair0": "{\n  \"left\": 0,\n  \"right\": 1\n}",
    "3pair0": "{\n  \"left\": 0,\n  \"right\": 1\n}"
  },
  {
    "name": "twilightforest:magic_leaves",
    "meta": 3,
    "length": 1,
    "name0": "minecraft:sapling",
    "meta0": 0,
    "0chance0": 5.38,
    "1chance0": 6.12,
    "2chance0": 7.9000006,
    "3chance0": 9.179999,
    "0pair0": "{\n  \"left\": 0,\n  \"right\": 1\n}",
    "1pair0": "{\n  \"left\": 0,\n  \"right\": 1\n}",
    "2pair0": "{\n  \"left\": 0,\n  \"right\": 1\n}",
    "3pair0": "{\n  \"left\": 0,\n  \"right\": 1\n}"
  },
  {
    "name": "twilightforest:magic_log_core",
    "meta": 0,
    "length": 1,
    "name0": "twilightforest:magic_log",
    "meta0": 0,
    "0chance0": 100.0,
    "1chance0": 100.0,
    "2chance0": 100.0,
    "3chance0": 100.0,
    "0pair0": "{\n  \"left\": 1,\n  \"right\": 1\n}",
    "1pair0": "{\n  \"left\": 1,\n  \"right\": 1\n}",
    "2pair0": "{\n  \"left\": 1,\n  \"right\": 1\n}",
    "3pair0": "{\n  \"left\": 1,\n  \"right\": 1\n}"
  },
  {
    "name": "twilightforest:magic_log_core",
    "meta": 1,
    "length": 1,
    "name0": "twilightforest:magic_log",
    "meta0": 1,
    "0chance0": 100.0,
    "1chance0": 100.0,
    "2chance0": 100.0,
    "3chance0": 100.0,
    "0pair0": "{\n  \"left\": 1,\n  \"right\": 1\n}",
    "1pair0": "{\n  \"left\": 1,\n  \"right\": 1\n}",
    "2pair0": "{\n  \"left\": 1,\n  \"right\": 1\n}",
    "3pair0": "{\n  \"left\": 1,\n  \"right\": 1\n}"
  },
  {
    "name": "twilightforest:magic_log_core",
    "meta": 2,
    "length": 1,
    "name0": "twilightforest:magic_log",
    "meta0": 2,
    "0chance0": 100.0,
    "1chance0": 100.0,
    "2chance0": 100.0,
    "3chance0": 100.0,
    "0pair0": "{\n  \"left\": 1,\n  \"right\": 1\n}",
    "1pair0": "{\n  \"left\": 1,\n  \"right\": 1\n}",
    "2pair0": "{\n  \"left\": 1,\n  \"right\": 1\n}",
    "3pair0": "{\n  \"left\": 1,\n  \"right\": 1\n}"
  },
  {
    "name": "twilightforest:magic_log_core",
    "meta": 3,
    "length": 1,
    "name0": "twilightforest:magic_log",
    "meta0": 3,
    "0chance0": 100.0,
    "1chance0": 100.0,
    "2chance0": 100.0,
    "3chance0": 100.0,
    "0pair0": "{\n  \"left\": 1,\n  \"right\": 1\n}",
    "1pair0": "{\n  \"left\": 1,\n  \"right\": 1\n}",
    "2pair0": "{\n  \"left\": 1,\n  \"right\": 1\n}",
    "3pair0": "{\n  \"left\": 1,\n  \"right\": 1\n}"
  },
  {
    "name": "twilightforest:dark_leaves",
    "meta": 0,
    "length": 1,
    "name0": "twilightforest:twilight_sapling",
    "meta0": 3,
    "0chance0": 2.6399999,
    "1chance0": 2.4,
    "2chance0": 2.3600001,
    "3chance0": 2.6200001,
    "0pair0": "{\n  \"left\": 0,\n  \"right\": 1\n}",
    "1pair0": "{\n  \"left\": 0,\n  \"right\": 1\n}",
    "2pair0": "{\n  \"left\": 0,\n  \"right\": 1\n}",
    "3pair0": "{\n  \"left\": 0,\n  \"right\": 1\n}"
  },
  {
    "name": "twilightforest:uberous_soil",
    "meta": 0,
    "length": 1,
    "name0": "minecraft:dirt",
    "meta0": 0,
    "0chance0": 100.0,
    "1chance0": 100.0,
    "2chance0": 100.0,
    "3chance0": 100.0,
    "0pair0": "{\n  \"left\": 1,\n  \"right\": 1\n}",
    "1pair0": "{\n  \"left\": 1,\n  \"right\": 1\n}",
    "2pair0": "{\n  \"left\": 1,\n  \"right\": 1\n}",
    "3pair0": "{\n  \"left\": 1,\n  \"right\": 1\n}"
  },
  {
    "name": "twilightforest:trollber",
    "meta": 0,
    "length": 1,
    "name0": "twilightforest:torchberries",
    "meta0": 0,
    "0chance0": 599.58,
    "1chance0": 811.52,
    "2chance0": 1053.18,
    "3chance0": 1333.48,
    "0pair0": "{\n  \"left\": 4,\n  \"right\": 8\n}",
    "1pair0": "{\n  \"left\": 4,\n  \"right\": 16\n}",
    "2pair0": "{\n  \"left\": 4,\n  \"right\": 24\n}",
    "3pair0": "{\n  \"left\": 4,\n  \"right\": 32\n}"
  },
  {
    "name": "twilightforest:castle_door",
    "meta": 1,
    "length": 1,
    "name0": "twilightforest:castle_door",
    "meta0": 0,
    "0chance0": 100.0,
    "1chance0": 100.0,
    "2chance0": 100.0,
    "3chance0": 100.0,
    "0pair0": "{\n  \"left\": 1,\n  \"right\": 1\n}",
    "1pair0": "{\n  \"left\": 1,\n  \"right\": 1\n}",
    "2pair0": "{\n  \"left\": 1,\n  \"right\": 1\n}",
    "3pair0": "{\n  \"left\": 1,\n  \"right\": 1\n}"
  },
  {
    "name": "twilightforest:castle_door",
    "meta": 2,
    "length": 1,
    "name0": "twilightforest:castle_door",
    "meta0": 0,
    "0chance0": 100.0,
    "1chance0": 100.0,
    "2chance0": 100.0,
    "3chance0": 100.0,
    "0pair0": "{\n  \"left\": 1,\n  \"right\": 1\n}",
    "1pair0": "{\n  \"left\": 1,\n  \"right\": 1\n}",
    "2pair0": "{\n  \"left\": 1,\n  \"right\": 1\n}",
    "3pair0": "{\n  \"left\": 1,\n  \"right\": 1\n}"
  },
  {
    "name": "twilightforest:castle_door",
    "meta": 3,
    "length": 1,
    "name0": "twilightforest:castle_door",
    "meta0": 0,
    "0chance0": 100.0,
    "1chance0": 100.0,
    "2chance0": 100.0,
    "3chance0": 100.0,
    "0pair0": "{\n  \"left\": 1,\n  \"right\": 1\n}",
    "1pair0": "{\n  \"left\": 1,\n  \"right\": 1\n}",
    "2pair0": "{\n  \"left\": 1,\n  \"right\": 1\n}",
    "3pair0": "{\n  \"left\": 1,\n  \"right\": 1\n}"
  },
  {
    "name": "botania:enchanter",
    "meta": 0,
    "length": 1,
    "name0": "minecraft:lapis_block",
    "meta0": 0,
    "0chance0": 100.0,
    "1chance0": 100.0,
    "2chance0": 100.0,
    "3chance0": 100.0,
    "0pair0": "{\n  \"left\": 1,\n  \"right\": 1\n}",
    "1pair0": "{\n  \"left\": 1,\n  \"right\": 1\n}",
    "2pair0": "{\n  \"left\": 1,\n  \"right\": 1\n}",
    "3pair0": "{\n  \"left\": 1,\n  \"right\": 1\n}"
  },
  {
    "name": "botania:enchantedsoil",
    "meta": 0,
    "length": 1,
    "name0": "minecraft:dirt",
    "meta0": 0,
    "0chance0": 100.0,
    "1chance0": 100.0,
    "2chance0": 100.0,
    "3chance0": 100.0,
    "0pair0": "{\n  \"left\": 1,\n  \"right\": 1\n}",
    "1pair0": "{\n  \"left\": 1,\n  \"right\": 1\n}",
    "2pair0": "{\n  \"left\": 1,\n  \"right\": 1\n}",
    "3pair0": "{\n  \"left\": 1,\n  \"right\": 1\n}"
  },
  {
    "name": "botania:root",
    "meta": 0,
    "length": 1,
    "name0": "botania:manaresource",
    "meta0": 20,
    "0chance0": 298.02002,
    "1chance0": 298.68,
    "2chance0": 299.9,
    "3chance0": 299.58002,
    "0pair0": "{\n  \"left\": 2,\n  \"right\": 4\n}",
    "1pair0": "{\n  \"left\": 2,\n  \"right\": 4\n}",
    "2pair0": "{\n  \"left\": 2,\n  \"right\": 4\n}",
    "3pair0": "{\n  \"left\": 2,\n  \"right\": 4\n}"
  },
  {
    "name": "tconstruct:slime_leaves",
    "meta": 1,
    "length": 1,
    "name0": "tconstruct:slime_sapling",
    "meta0": 1,
    "0chance0": 3.96,
    "1chance0": 4.24,
    "2chance0": 6.02,
    "3chance0": 10.9,
    "0pair0": "{\n  \"left\": 0,\n  \"right\": 1\n}",
    "1pair0": "{\n  \"left\": 0,\n  \"right\": 1\n}",
    "2pair0": "{\n  \"left\": 0,\n  \"right\": 1\n}",
    "3pair0": "{\n  \"left\": 0,\n  \"right\": 1\n}"
  },
  {
    "name": "tconstruct:slime_leaves",
    "meta": 2,
    "length": 1,
    "name0": "tconstruct:slime_sapling",
    "meta0": 2,
    "0chance0": 3.98,
    "1chance0": 5.48,
    "2chance0": 6.08,
    "3chance0": 10.46,
    "0pair0": "{\n  \"left\": 0,\n  \"right\": 1\n}",
    "1pair0": "{\n  \"left\": 0,\n  \"right\": 1\n}",
    "2pair0": "{\n  \"left\": 0,\n  \"right\": 1\n}",
    "3pair0": "{\n  \"left\": 0,\n  \"right\": 1\n}"
  },
  {
    "name": "tconstruct:slime_leaves",
    "meta": 0,
    "length": 1,
    "name0": "tconstruct:slime_sapling",
    "meta0": 0,
    "0chance0": 3.6,
    "1chance0": 4.8,
    "2chance0": 5.48,
    "3chance0": 9.700001,
    "0pair0": "{\n  \"left\": 0,\n  \"right\": 1\n}",
    "1pair0": "{\n  \"left\": 0,\n  \"right\": 1\n}",
    "2pair0": "{\n  \"left\": 0,\n  \"right\": 1\n}",
    "3pair0": "{\n  \"left\": 0,\n  \"right\": 1\n}"
  },
  {
    "name": "thermalfoundation:ore_fluid",
    "meta": 2,
    "length": 1,
    "name0": "thermalfoundation:material",
    "meta0": 893,
    "0chance0": 100.0,
    "1chance0": 149.84,
    "2chance0": 198.28,
    "3chance0": 252.34001,
    "0pair0": "{\n  \"left\": 1,\n  \"right\": 1\n}",
    "1pair0": "{\n  \"left\": 1,\n  \"right\": 2\n}",
    "2pair0": "{\n  \"left\": 1,\n  \"right\": 3\n}",
    "3pair0": "{\n  \"left\": 1,\n  \"right\": 4\n}"
  },
  {
    "name": "thermalfoundation:ore_fluid",
    "meta": 1,
    "length": 1,
    "name0": "thermalfoundation:material",
    "meta0": 892,
    "0chance0": 100.0,
    "1chance0": 149.28,
    "2chance0": 197.88,
    "3chance0": 250.90001,
    "0pair0": "{\n  \"left\": 1,\n  \"right\": 1\n}",
    "1pair0": "{\n  \"left\": 1,\n  \"right\": 2\n}",
    "2pair0": "{\n  \"left\": 1,\n  \"right\": 3\n}",
    "3pair0": "{\n  \"left\": 1,\n  \"right\": 4\n}"
  },
  {
    "name": "thermalfoundation:ore_fluid",
    "meta": 0,
    "length": 1,
    "name0": "thermalfoundation:material",
    "meta0": 892,
    "0chance0": 100.0,
    "1chance0": 150.58,
    "2chance0": 199.54,
    "3chance0": 250.51999,
    "0pair0": "{\n  \"left\": 1,\n  \"right\": 1\n}",
    "1pair0": "{\n  \"left\": 1,\n  \"right\": 2\n}",
    "2pair0": "{\n  \"left\": 1,\n  \"right\": 3\n}",
    "3pair0": "{\n  \"left\": 1,\n  \"right\": 4\n}"
  },
  {
    "name": "extratrees:shrub_log",
    "meta": 0,
    "length": 1,
    "name0": "minecraft:stick",
    "meta0": 0,
    "0chance0": 319.32,
    "1chance0": 322.62,
    "2chance0": 321.38,
    "3chance0": 320.76,
    "0pair0": "{\n  \"left\": 2,\n  \"right\": 5\n}",
    "1pair0": "{\n  \"left\": 2,\n  \"right\": 5\n}",
    "2pair0": "{\n  \"left\": 2,\n  \"right\": 5\n}",
    "3pair0": "{\n  \"left\": 2,\n  \"right\": 5\n}"
  },
  {
    "name": "thermalfoundation:ore_fluid",
    "meta": 4,
    "length": 1,
    "name0": "thermalfoundation:material",
    "meta0": 895,
    "0chance0": 100.0,
    "1chance0": 149.36,
    "2chance0": 197.66,
    "3chance0": 250.32,
    "0pair0": "{\n  \"left\": 1,\n  \"right\": 1\n}",
    "1pair0": "{\n  \"left\": 1,\n  \"right\": 2\n}",
    "2pair0": "{\n  \"left\": 1,\n  \"right\": 3\n}",
    "3pair0": "{\n  \"left\": 1,\n  \"right\": 4\n}"
  },
  {
    "name": "ic2:scaffold",
    "meta": 1,
    "length": 2,
    "name0": "minecraft:stick",
    "meta0": 0,
    "0chance0": 200.0,
    "1chance0": 200.0,
    "2chance0": 200.0,
    "3chance0": 200.0,
    "0pair0": "{\n  \"left\": 2,\n  \"right\": 2\n}",
    "1pair0": "{\n  \"left\": 2,\n  \"right\": 2\n}",
    "2pair0": "{\n  \"left\": 2,\n  \"right\": 2\n}",
    "3pair0": "{\n  \"left\": 2,\n  \"right\": 2\n}",
    "name1": "ic2:scaffold",
    "meta1": 0,
    "0chance1": 100.0,
    "1chance1": 100.0,
    "2chance1": 100.0,
    "3chance1": 100.0,
    "0pair1": "{\n  \"left\": 1,\n  \"right\": 1\n}",
    "1pair1": "{\n  \"left\": 1,\n  \"right\": 1\n}",
    "2pair1": "{\n  \"left\": 1,\n  \"right\": 1\n}",
    "3pair1": "{\n  \"left\": 1,\n  \"right\": 1\n}"
  },
  {
    "name": "ic2:sheet",
    "meta": 0,
    "length": 1,
    "name0": "ic2:misc_resource",
    "meta0": 4,
    "0chance0": 80.26,
    "1chance0": 78.619995,
    "2chance0": 80.32,
    "3chance0": 79.54,
    "0pair0": "{\n  \"left\": 0,\n  \"right\": 1\n}",
    "1pair0": "{\n  \"left\": 0,\n  \"right\": 1\n}",
    "2pair0": "{\n  \"left\": 0,\n  \"right\": 1\n}",
    "3pair0": "{\n  \"left\": 0,\n  \"right\": 1\n}"
  },
  {
    "name": "forestry:humus",
    "meta": 0,
    "length": 1,
    "name0": "minecraft:dirt",
    "meta0": 0,
    "0chance0": 100.0,
    "1chance0": 100.0,
    "2chance0": 100.0,
    "3chance0": 100.0,
    "0pair0": "{\n  \"left\": 1,\n  \"right\": 1\n}",
    "1pair0": "{\n  \"left\": 1,\n  \"right\": 1\n}",
    "2pair0": "{\n  \"left\": 1,\n  \"right\": 1\n}",
    "3pair0": "{\n  \"left\": 1,\n  \"right\": 1\n}"
  },
  {
    "name": "thermalfoundation:ore_fluid",
    "meta": 3,
    "length": 1,
    "name0": "thermalfoundation:material",
    "meta0": 894,
    "0chance0": 100.0,
    "1chance0": 149.7,
    "2chance0": 200.84,
    "3chance0": 251.3,
    "0pair0": "{\n  \"left\": 1,\n  \"right\": 1\n}",
    "1pair0": "{\n  \"left\": 1,\n  \"right\": 2\n}",
    "2pair0": "{\n  \"left\": 1,\n  \"right\": 3\n}",
    "3pair0": "{\n  \"left\": 1,\n  \"right\": 4\n}"
  },
  {
    "name": "extrabees:ectoplasm",
    "meta": 0,
    "length": 1,
    "name0": "minecraft:slime_ball",
    "meta0": 0,
    "0chance0": 19.84,
    "1chance0": 19.72,
    "2chance0": 19.18,
    "3chance0": 19.300001,
    "0pair0": "{\n  \"left\": 0,\n  \"right\": 1\n}",
    "1pair0": "{\n  \"left\": 0,\n  \"right\": 1\n}",
    "2pair0": "{\n  \"left\": 0,\n  \"right\": 1\n}",
    "3pair0": "{\n  \"left\": 0,\n  \"right\": 1\n}"
  },
  {
    "name": "forestry:resources",
    "meta": 0,
    "length": 1,
    "name0": "forestry:apatite",
    "meta0": 0,
    "0chance0": 400.47998,
    "1chance0": 536.63995,
    "2chance0": 704.82,
    "3chance0": 889.26,
    "0pair0": "{\n  \"left\": 2,\n  \"right\": 6\n}",
    "1pair0": "{\n  \"left\": 2,\n  \"right\": 12\n}",
    "2pair0": "{\n  \"left\": 2,\n  \"right\": 18\n}",
    "3pair0": "{\n  \"left\": 2,\n  \"right\": 24\n}"
  },
  {
    "name": "extrabees:hive",
    "meta": 2,
    "length": 2,
    "name0": "forestry:bee_drone_ge",
    "meta0": 0,
    "0chance0": 81.1,
    "1chance0": 80.42,
    "2chance0": 80.28,
    "3chance0": 80.88,
    "0pair0": "{\n  \"left\": 0,\n  \"right\": 1\n}",
    "1pair0": "{\n  \"left\": 0,\n  \"right\": 1\n}",
    "2pair0": "{\n  \"left\": 0,\n  \"right\": 1\n}",
    "3pair0": "{\n  \"left\": 0,\n  \"right\": 1\n}",
    "name1": "forestry:bee_princess_ge",
    "meta1": 0,
    "0chance1": 100.0,
    "1chance1": 100.0,
    "2chance1": 100.0,
    "3chance1": 100.0,
    "0pair1": "{\n  \"left\": 1,\n  \"right\": 1\n}",
    "1pair1": "{\n  \"left\": 1,\n  \"right\": 1\n}",
    "2pair1": "{\n  \"left\": 1,\n  \"right\": 1\n}",
    "3pair1": "{\n  \"left\": 1,\n  \"right\": 1\n}"
  },
  {
    "name": "forestry:ash_block",
    "meta": 0,
    "length": 2,
    "name0": "minecraft:coal",
    "meta0": 1,
    "0chance0": 900.0,
    "1chance0": 949.69995,
    "2chance0": 999.10004,
    "3chance0": 1051.88,
    "0pair0": "{\n  \"left\": 9,\n  \"right\": 9\n}",
    "1pair0": "{\n  \"left\": 9,\n  \"right\": 10\n}",
    "2pair0": "{\n  \"left\": 9,\n  \"right\": 11\n}",
    "3pair0": "{\n  \"left\": 9,\n  \"right\": 12\n}",
    "name1": "forestry:ash",
    "meta1": 0,
    "0chance1": 149.1,
    "1chance1": 151.42,
    "2chance1": 149.46,
    "3chance1": 164.1,
    "0pair1": "{\n  \"left\": 1,\n  \"right\": 2\n}",
    "1pair1": "{\n  \"left\": 1,\n  \"right\": 2\n}",
    "2pair1": "{\n  \"left\": 1,\n  \"right\": 2\n}",
    "3pair1": "{\n  \"left\": 1,\n  \"right\": 3\n}"
  },
  {
    "name": "ic2:foam",
    "meta": 1,
    "length": 1,
    "name0": "ic2:scaffold",
    "meta0": 2,
    "0chance0": 100.0,
    "1chance0": 100.0,
    "2chance0": 100.0,
    "3chance0": 100.0,
    "0pair0": "{\n  \"left\": 1,\n  \"right\": 1\n}",
    "1pair0": "{\n  \"left\": 1,\n  \"right\": 1\n}",
    "2pair0": "{\n  \"left\": 1,\n  \"right\": 1\n}",
    "3pair0": "{\n  \"left\": 1,\n  \"right\": 1\n}"
  },
  {
    "name": "extrabees:hive",
    "meta": 3,
    "length": 2,
    "name0": "forestry:bee_drone_ge",
    "meta0": 0,
    "0chance0": 81.38,
    "1chance0": 80.26,
    "2chance0": 80.72,
    "3chance0": 80.46,
    "0pair0": "{\n  \"left\": 0,\n  \"right\": 1\n}",
    "1pair0": "{\n  \"left\": 0,\n  \"right\": 1\n}",
    "2pair0": "{\n  \"left\": 0,\n  \"right\": 1\n}",
    "3pair0": "{\n  \"left\": 0,\n  \"right\": 1\n}",
    "name1": "forestry:bee_princess_ge",
    "meta1": 0,
    "0chance1": 100.0,
    "1chance1": 100.0,
    "2chance1": 100.0,
    "3chance1": 100.0,
    "0pair1": "{\n  \"left\": 1,\n  \"right\": 1\n}",
    "1pair1": "{\n  \"left\": 1,\n  \"right\": 1\n}",
    "2pair1": "{\n  \"left\": 1,\n  \"right\": 1\n}",
    "3pair1": "{\n  \"left\": 1,\n  \"right\": 1\n}"
  },
  {
    "name": "ic2:scaffold",
    "meta": 3,
    "length": 2,
    "name0": "ic2:scaffold",
    "meta0": 2,
    "0chance0": 100.0,
    "1chance0": 100.0,
    "2chance0": 100.0,
    "3chance0": 100.0,
    "0pair0": "{\n  \"left\": 1,\n  \"right\": 1\n}",
    "1pair0": "{\n  \"left\": 1,\n  \"right\": 1\n}",
    "2pair0": "{\n  \"left\": 1,\n  \"right\": 1\n}",
    "3pair0": "{\n  \"left\": 1,\n  \"right\": 1\n}",
    "name1": "ic2:fence",
    "meta1": 0,
    "0chance1": 100.0,
    "1chance1": 100.0,
    "2chance1": 100.0,
    "3chance1": 100.0,
    "0pair1": "{\n  \"left\": 1,\n  \"right\": 1\n}",
    "1pair1": "{\n  \"left\": 1,\n  \"right\": 1\n}",
    "2pair1": "{\n  \"left\": 1,\n  \"right\": 1\n}",
    "3pair1": "{\n  \"left\": 1,\n  \"right\": 1\n}"
  },
  {
    "name": "extrabees:hive",
    "meta": 1,
    "length": 2,
    "name0": "forestry:bee_drone_ge",
    "meta0": 0,
    "0chance0": 80.26,
    "1chance0": 80.06,
    "2chance0": 79.72,
    "3chance0": 80.2,
    "0pair0": "{\n  \"left\": 0,\n  \"right\": 1\n}",
    "1pair0": "{\n  \"left\": 0,\n  \"right\": 1\n}",
    "2pair0": "{\n  \"left\": 0,\n  \"right\": 1\n}",
    "3pair0": "{\n  \"left\": 0,\n  \"right\": 1\n}",
    "name1": "forestry:bee_princess_ge",
    "meta1": 0,
    "0chance1": 100.0,
    "1chance1": 100.0,
    "2chance1": 100.0,
    "3chance1": 100.0,
    "0pair1": "{\n  \"left\": 1,\n  \"right\": 1\n}",
    "1pair1": "{\n  \"left\": 1,\n  \"right\": 1\n}",
    "2pair1": "{\n  \"left\": 1,\n  \"right\": 1\n}",
    "3pair1": "{\n  \"left\": 1,\n  \"right\": 1\n}"
  },
  {
    "name": "ic2:leaves",
    "meta": 0,
    "length": 1,
    "name0": "ic2:sapling",
    "meta0": 0,
    "0chance0": 2.6599998,
    "1chance0": 3.32,
    "2chance0": 3.7,
    "3chance0": 5.48,
    "0pair0": "{\n  \"left\": 0,\n  \"right\": 1\n}",
    "1pair0": "{\n  \"left\": 0,\n  \"right\": 1\n}",
    "2pair0": "{\n  \"left\": 0,\n  \"right\": 1\n}",
    "3pair0": "{\n  \"left\": 0,\n  \"right\": 1\n}"
  },
  {
    "name": "forestry:beehives",
    "meta": 1,
    "length": 3,
    "name0": "forestry:bee_drone_ge",
    "meta0": 0,
    "0chance0": 80.68,
    "1chance0": 80.36,
    "2chance0": 80.44,
    "3chance0": 80.479996,
    "0pair0": "{\n  \"left\": 0,\n  \"right\": 1\n}",
    "1pair0": "{\n  \"left\": 0,\n  \"right\": 1\n}",
    "2pair0": "{\n  \"left\": 0,\n  \"right\": 1\n}",
    "3pair0": "{\n  \"left\": 0,\n  \"right\": 1\n}",
    "name1": "forestry:bee_princess_ge",
    "meta1": 0,
    "0chance1": 100.0,
    "1chance1": 100.0,
    "2chance1": 100.0,
    "3chance1": 100.0,
    "0pair1": "{\n  \"left\": 1,\n  \"right\": 1\n}",
    "1pair1": "{\n  \"left\": 1,\n  \"right\": 1\n}",
    "2pair1": "{\n  \"left\": 1,\n  \"right\": 1\n}",
    "3pair1": "{\n  \"left\": 1,\n  \"right\": 1\n}",
    "name2": "forestry:bee_combs",
    "meta2": 0,
    "0chance2": 80.34,
    "1chance2": 81.18,
    "2chance2": 80.64,
    "3chance2": 81.68,
    "0pair2": "{\n  \"left\": 0,\n  \"right\": 1\n}",
    "1pair2": "{\n  \"left\": 0,\n  \"right\": 1\n}",
    "2pair2": "{\n  \"left\": 0,\n  \"right\": 1\n}",
    "3pair2": "{\n  \"left\": 0,\n  \"right\": 1\n}"
  },
  {
    "name": "forestry:beehives",
    "meta": 0,
    "length": 3,
    "name0": "forestry:bee_drone_ge",
    "meta0": 0,
    "0chance0": 83.020004,
    "1chance0": 82.26,
    "2chance0": 82.22,
    "3chance0": 82.12,
    "0pair0": "{\n  \"left\": 0,\n  \"right\": 1\n}",
    "1pair0": "{\n  \"left\": 0,\n  \"right\": 1\n}",
    "2pair0": "{\n  \"left\": 0,\n  \"right\": 1\n}",
    "3pair0": "{\n  \"left\": 0,\n  \"right\": 1\n}",
    "name1": "forestry:bee_princess_ge",
    "meta1": 0,
    "0chance1": 100.0,
    "1chance1": 100.0,
    "2chance1": 100.0,
    "3chance1": 100.0,
    "0pair1": "{\n  \"left\": 1,\n  \"right\": 1\n}",
    "1pair1": "{\n  \"left\": 1,\n  \"right\": 1\n}",
    "2pair1": "{\n  \"left\": 1,\n  \"right\": 1\n}",
    "3pair1": "{\n  \"left\": 1,\n  \"right\": 1\n}",
    "name2": "forestry:bee_combs",
    "meta2": 0,
    "0chance2": 82.18,
    "1chance2": 82.840004,
    "2chance2": 81.04,
    "3chance2": 81.66,
    "0pair2": "{\n  \"left\": 0,\n  \"right\": 1\n}",
    "1pair2": "{\n  \"left\": 0,\n  \"right\": 1\n}",
    "2pair2": "{\n  \"left\": 0,\n  \"right\": 1\n}",
    "3pair2": "{\n  \"left\": 0,\n  \"right\": 1\n}"
  },
  {
    "name": "forestry:beehives",
    "meta": 6,
    "length": 3,
    "name0": "forestry:bee_drone_ge",
    "meta0": 0,
    "0chance0": 79.799995,
    "1chance0": 80.62,
    "2chance0": 80.38,
    "3chance0": 80.72,
    "0pair0": "{\n  \"left\": 0,\n  \"right\": 1\n}",
    "1pair0": "{\n  \"left\": 0,\n  \"right\": 1\n}",
    "2pair0": "{\n  \"left\": 0,\n  \"right\": 1\n}",
    "3pair0": "{\n  \"left\": 0,\n  \"right\": 1\n}",
    "name1": "forestry:bee_princess_ge",
    "meta1": 0,
    "0chance1": 100.0,
    "1chance1": 100.0,
    "2chance1": 100.0,
    "3chance1": 100.0,
    "0pair1": "{\n  \"left\": 1,\n  \"right\": 1\n}",
    "1pair1": "{\n  \"left\": 1,\n  \"right\": 1\n}",
    "2pair1": "{\n  \"left\": 1,\n  \"right\": 1\n}",
    "3pair1": "{\n  \"left\": 1,\n  \"right\": 1\n}",
    "name2": "forestry:bee_combs",
    "meta2": 15,
    "0chance2": 80.22,
    "1chance2": 79.64,
    "2chance2": 80.78,
    "3chance2": 80.84,
    "0pair2": "{\n  \"left\": 0,\n  \"right\": 1\n}",
    "1pair2": "{\n  \"left\": 0,\n  \"right\": 1\n}",
    "2pair2": "{\n  \"left\": 0,\n  \"right\": 1\n}",
    "3pair2": "{\n  \"left\": 0,\n  \"right\": 1\n}"
  },
  {
    "name": "forestry:beehives",
    "meta": 5,
    "length": 3,
    "name0": "forestry:bee_drone_ge",
    "meta0": 0,
    "0chance0": 81.1,
    "1chance0": 81.06,
    "2chance0": 80.94,
    "3chance0": 80.479996,
    "0pair0": "{\n  \"left\": 0,\n  \"right\": 1\n}",
    "1pair0": "{\n  \"left\": 0,\n  \"right\": 1\n}",
    "2pair0": "{\n  \"left\": 0,\n  \"right\": 1\n}",
    "3pair0": "{\n  \"left\": 0,\n  \"right\": 1\n}",
    "name1": "forestry:bee_princess_ge",
    "meta1": 0,
    "0chance1": 100.0,
    "1chance1": 100.0,
    "2chance1": 100.0,
    "3chance1": 100.0,
    "0pair1": "{\n  \"left\": 1,\n  \"right\": 1\n}",
    "1pair1": "{\n  \"left\": 1,\n  \"right\": 1\n}",
    "2pair1": "{\n  \"left\": 1,\n  \"right\": 1\n}",
    "3pair1": "{\n  \"left\": 1,\n  \"right\": 1\n}",
    "name2": "forestry:bee_combs",
    "meta2": 4,
    "0chance2": 80.62,
    "1chance2": 81.28,
    "2chance2": 79.7,
    "3chance2": 80.98,
    "0pair2": "{\n  \"left\": 0,\n  \"right\": 1\n}",
    "1pair2": "{\n  \"left\": 0,\n  \"right\": 1\n}",
    "2pair2": "{\n  \"left\": 0,\n  \"right\": 1\n}",
    "3pair2": "{\n  \"left\": 0,\n  \"right\": 1\n}"
  },
  {
    "name": "forestry:beehives",
    "meta": 2,
    "length": 3,
    "name0": "forestry:bee_drone_ge",
    "meta0": 0,
    "0chance0": 80.26,
    "1chance0": 80.119995,
    "2chance0": 81.12,
    "3chance0": 80.2,
    "0pair0": "{\n  \"left\": 0,\n  \"right\": 1\n}",
    "1pair0": "{\n  \"left\": 0,\n  \"right\": 1\n}",
    "2pair0": "{\n  \"left\": 0,\n  \"right\": 1\n}",
    "3pair0": "{\n  \"left\": 0,\n  \"right\": 1\n}",
    "name1": "forestry:bee_princess_ge",
    "meta1": 0,
    "0chance1": 100.0,
    "1chance1": 100.0,
    "2chance1": 100.0,
    "3chance1": 100.0,
    "0pair1": "{\n  \"left\": 1,\n  \"right\": 1\n}",
    "1pair1": "{\n  \"left\": 1,\n  \"right\": 1\n}",
    "2pair1": "{\n  \"left\": 1,\n  \"right\": 1\n}",
    "3pair1": "{\n  \"left\": 1,\n  \"right\": 1\n}",
    "name2": "forestry:bee_combs",
    "meta2": 7,
    "0chance2": 79.78,
    "1chance2": 80.4,
    "2chance2": 80.86,
    "3chance2": 79.979996,
    "0pair2": "{\n  \"left\": 0,\n  \"right\": 1\n}",
    "1pair2": "{\n  \"left\": 0,\n  \"right\": 1\n}",
    "2pair2": "{\n  \"left\": 0,\n  \"right\": 1\n}",
    "3pair2": "{\n  \"left\": 0,\n  \"right\": 1\n}"
  },
  {
    "name": "forestry:beehives",
    "meta": 3,
    "length": 3,
    "name0": "forestry:bee_drone_ge",
    "meta0": 0,
    "0chance0": 80.1,
    "1chance0": 80.72,
    "2chance0": 80.88,
    "3chance0": 81.24,
    "0pair0": "{\n  \"left\": 0,\n  \"right\": 1\n}",
    "1pair0": "{\n  \"left\": 0,\n  \"right\": 1\n}",
    "2pair0": "{\n  \"left\": 0,\n  \"right\": 1\n}",
    "3pair0": "{\n  \"left\": 0,\n  \"right\": 1\n}",
    "name1": "forestry:bee_princess_ge",
    "meta1": 0,
    "0chance1": 100.0,
    "1chance1": 100.0,
    "2chance1": 100.0,
    "3chance1": 100.0,
    "0pair1": "{\n  \"left\": 1,\n  \"right\": 1\n}",
    "1pair1": "{\n  \"left\": 1,\n  \"right\": 1\n}",
    "2pair1": "{\n  \"left\": 1,\n  \"right\": 1\n}",
    "3pair1": "{\n  \"left\": 1,\n  \"right\": 1\n}",
    "name2": "forestry:bee_combs",
    "meta2": 6,
    "0chance2": 80.0,
    "1chance2": 80.46,
    "2chance2": 80.34,
    "3chance2": 80.62,
    "0pair2": "{\n  \"left\": 0,\n  \"right\": 1\n}",
    "1pair2": "{\n  \"left\": 0,\n  \"right\": 1\n}",
    "2pair2": "{\n  \"left\": 0,\n  \"right\": 1\n}",
    "3pair2": "{\n  \"left\": 0,\n  \"right\": 1\n}"
  },
  {
    "name": "forestry:beehives",
    "meta": 4,
    "length": 3,
    "name0": "forestry:bee_drone_ge",
    "meta0": 0,
    "0chance0": 90.380005,
    "1chance0": 89.76,
    "2chance0": 89.380005,
    "3chance0": 89.8,
    "0pair0": "{\n  \"left\": 0,\n  \"right\": 1\n}",
    "1pair0": "{\n  \"left\": 0,\n  \"right\": 1\n}",
    "2pair0": "{\n  \"left\": 0,\n  \"right\": 1\n}",
    "3pair0": "{\n  \"left\": 0,\n  \"right\": 1\n}",
    "name1": "forestry:bee_princess_ge",
    "meta1": 0,
    "0chance1": 100.0,
    "1chance1": 100.0,
    "2chance1": 100.0,
    "3chance1": 100.0,
    "0pair1": "{\n  \"left\": 1,\n  \"right\": 1\n}",
    "1pair1": "{\n  \"left\": 1,\n  \"right\": 1\n}",
    "2pair1": "{\n  \"left\": 1,\n  \"right\": 1\n}",
    "3pair1": "{\n  \"left\": 1,\n  \"right\": 1\n}",
    "name2": "forestry:bee_combs",
    "meta2": 8,
    "0chance2": 89.8,
    "1chance2": 89.420006,
    "2chance2": 90.14,
    "3chance2": 90.16,
    "0pair2": "{\n  \"left\": 0,\n  \"right\": 1\n}",
    "1pair2": "{\n  \"left\": 0,\n  \"right\": 1\n}",
    "2pair2": "{\n  \"left\": 0,\n  \"right\": 1\n}",
    "3pair2": "{\n  \"left\": 0,\n  \"right\": 1\n}"
  },
  {
    "name": "extrabees:hive",
    "meta": 0,
    "length": 2,
    "name0": "forestry:bee_drone_ge",
    "meta0": 0,
    "0chance0": 80.76,
    "1chance0": 81.38,
    "2chance0": 79.56,
    "3chance0": 80.5,
    "0pair0": "{\n  \"left\": 0,\n  \"right\": 1\n}",
    "1pair0": "{\n  \"left\": 0,\n  \"right\": 1\n}",
    "2pair0": "{\n  \"left\": 0,\n  \"right\": 1\n}",
    "3pair0": "{\n  \"left\": 0,\n  \"right\": 1\n}",
    "name1": "forestry:bee_princess_ge",
    "meta1": 0,
    "0chance1": 100.0,
    "1chance1": 100.0,
    "2chance1": 100.0,
    "3chance1": 100.0,
    "0pair1": "{\n  \"left\": 1,\n  \"right\": 1\n}",
    "1pair1": "{\n  \"left\": 1,\n  \"right\": 1\n}",
    "2pair1": "{\n  \"left\": 1,\n  \"right\": 1\n}",
    "3pair1": "{\n  \"left\": 1,\n  \"right\": 1\n}"
  },
  {
    "name": "rftools:dimensional_shard_ore",
    "meta": 1,
    "length": 1,
    "name0": "rftools:dimensional_shard",
    "meta0": 0,
    "0chance0": 300.02,
    "1chance0": 398.86002,
    "2chance0": 525.89996,
    "3chance0": 656.04,
    "0pair0": "{\n  \"left\": 2,\n  \"right\": 4\n}",
    "1pair0": "{\n  \"left\": 2,\n  \"right\": 8\n}",
    "2pair0": "{\n  \"left\": 2,\n  \"right\": 12\n}",
    "3pair0": "{\n  \"left\": 2,\n  \"right\": 16\n}"
  },
  {
    "name": "rftools:dimensional_shard_ore",
    "meta": 2,
    "length": 1,
    "name0": "rftools:dimensional_shard",
    "meta0": 0,
    "0chance0": 299.64,
    "1chance0": 398.48,
    "2chance0": 526.58,
    "3chance0": 653.86,
    "0pair0": "{\n  \"left\": 2,\n  \"right\": 4\n}",
    "1pair0": "{\n  \"left\": 2,\n  \"right\": 8\n}",
    "2pair0": "{\n  \"left\": 2,\n  \"right\": 12\n}",
    "3pair0": "{\n  \"left\": 2,\n  \"right\": 16\n}"
  },
  {
    "name": "rftools:dimensional_shard_ore",
    "meta": 0,
    "length": 1,
    "name0": "rftools:dimensional_shard",
    "meta0": 0,
    "0chance0": 300.41998,
    "1chance0": 398.66,
    "2chance0": 518.64,
    "3chance0": 652.94,
    "0pair0": "{\n  \"left\": 2,\n  \"right\": 4\n}",
    "1pair0": "{\n  \"left\": 2,\n  \"right\": 8\n}",
    "2pair0": "{\n  \"left\": 2,\n  \"right\": 12\n}",
    "3pair0": "{\n  \"left\": 2,\n  \"right\": 16\n}"
  }
]