{
  "entries": [
    {
      "item": "draconicevolution:draconium_dust|0",
      "emc": 1024
    },
    {
      "item": "minecraft:blaze_powder|0",
      "emc": 307
    },
    {
      "item": "minecraft:dye|15",
      "emc": 24
    },
    {
      "item": "OD|plateIron",
      "emc": 256
    },
    {
      "item": "OD|plateGold",
      "emc": 2048
    },
    {
      "item": "OD|plateCopper",
      "emc": 128
    },
    {
      "item": "OD|plateTin",
      "emc": 256
    },
    {
      "item": "OD|plateSilver",
      "emc": 512
    },
    {
      "item": "OD|plateLead",
      "emc": 512
    },
    {
      "item": "OD|plateNickel",
      "emc": 1024
    },
    {
      "item": "OD|plateAluminium",
      "emc": 128
    },
    {
      "item": "thermalfoundation:material|324",
      "emc": 128
    },
    {
      "item": "OD|platePlatinum",
      "emc": 4096
    },
    {
      "item": "OD|plateElectrum",
      "emc": 1280
    },
    {
      "item": "OD|plateInvar",
      "emc": 512
    },
    {
      "item": "OD|plateBronze",
      "emc": 160
    },
    {
      "item": "OD|plateSignalum",
      "emc": 384
    },
    {
      "item": "OD|plateLumium",
      "emc": 704
    },
    {
      "item": "OD|plateEnderium",
      "emc": 2528
    },
    {
      "item": "thermalfoundation:material|2050",
      "emc": 1536
    },
    {
      "item": "thermalfoundation:material|2051",
      "emc": 384
    },
    {
      "item": "thermalfoundation:material|772",
      "emc": 2
    },
    {
      "item": "thermalfoundation:material|2049",
      "emc": 129
    },
    {
      "item": "thermalfoundation:material|2048",
      "emc": 516
    },
    {
      "item": "minecraft:lava_bucket|0",
      "emc": 832
    },
    {
      "item": "minecraft:water_bucket|0",
      "emc": 769
    },
    {
      "item": "ic2:misc_resource|5",
      "emc": 2
    },
    {
      "item": "OD|slimeball",
      "emc": 32
    },
    {
      "item": "extratrees:misc|1",
      "emc": 1
    },
    {
      "item": "thermalfoundation:material|800",
      "emc": 1
    },
    {
      "item": "thermalfoundation:material|164",
      "emc": 576
    },
    {
      "item": "thermalfoundation:material|356",
      "emc": 576
    },
    {
      "item": "thermalfoundation:material|1025",
      "emc": 98
    },
    {
      "item": "thermalfoundation:material|1024",
      "emc": 233
    },
    {
      "item": "thermalfoundation:material|1026",
      "emc": 225
    },
    {
      "item": "thermalfoundation:material|2052",
      "emc": 1536
    },
    {
      "item": "thermalfoundation:material|2053",
      "emc": 384
    },
    {
      "item": "extrautils2:ingredients|4",
      "emc": 32
    },
    {
      "item": "thermalfoundation:material|1027",
      "emc": 240
    },
    {
      "item": "minecraft:experience_bottle|0",
      "emc": 1024
    },
    {
      "item": "minecraft:elytra|0",
      "emc": 2048
    },
    {
      "item": "OD|ingotSteel",
      "emc": 270
    },
    {
      "item": "OD|plateSteel",
      "emc": 270
    },
    {
      "item": "mrp:infinitysoul|0",
      "emc": 8192
    },
    {
      "item": "extrautils2:ingredients|9",
      "emc": 4096
    },
    {
      "item": "minecraft:dye|0",
      "emc": 4
    },
    {
      "item": "minecraft:dye:7|0",
      "emc": 4
    },
    {
      "item": "minecraft:dye:9|0",
      "emc": 4
    },
    {
      "item": "minecraft:dye:14|0",
      "emc": 4
    },
    {
      "item": "minecraft:sugar|0",
      "emc": 16
    },
    {
      "item": "minecraft:prismarine_crystals|0",
      "emc": 128
    },
    {
      "item": "minecraft:magma_cream|0",
      "emc": 32
    }
  ]
}